A collider example in a medical context
…
This article walks through a specific medical example of a potential collider, building on the example laid out by Luque-Fernandez et al (2019) in Paradoxical collider effect in the analysis of non-communicable disease epidemiological data: a reproducible illustration and web application. Here, we use the causal_collider and causal_collider_time data sets, but suppose that the exposure is sodium intake, the outcome is systolic blood pressure (SBP), and the covariate is urinary protein excretion (proteinuria).

Causal Question: What is the average treatment effect of 24-hour dietary sodium intake (in grams) on systolic blood pressure?

Available data: We have a data set with three variables exposure (sodium intake in grams), outcome (systolic blood pressure) and covariate (24-hour excretion of urinary protein, proteinuria)

The truth: Because this is simulated data, we know the true relationship between sodium intake and systolic blood pressure. In this case the estimated average treatment effect should be 1.

Let’s begin by examining the data. We will additionally load the tidyverse package, which we will use for data visualization and manipulation.

library(quartets)
library(tidyverse)
causal_collider

# A tibble: 100 × 3
   exposure outcome covariate
      <dbl>   <dbl>     <dbl>
 1   0.486   1.71       2.24 
 2   0.0653  0.669      0.924
 3  -1.40   -1.60      -0.999
 4  -0.546  -1.73      -2.34 
 5  -0.401   0.617      0.207
 6  -2.38   -2.15      -3.62 
 7   0.652   0.585      0.799
 8  -0.574   0.706     -1.31 
 9   1.19    1.52       1.16 
10  -0.664   0.0181    -1.89 
# ℹ 90 more rows
…
Coefficients:
(Intercept)     exposure  
     0.3284       0.3438  

Oh no! This claims that the estimated average treatment effect is 0.34 (we know the true effect should be 1).

Incorporating time varying data

Luckily, we have some data that includes the timing of our measurements. We know that we should only be adjusting for factors that were measured prior to the exposure (i.e., we want to adjust for proteinuria at baseline not at follow-up). Let’s look at the time varying dataset:

causal_collider_time

# A tibble: 100 × 6
   exposure_baseline outcome_baseline covariate_baseline exposure_followup
               <dbl>            <dbl>              <dbl>             <dbl>
 1          -1.43              0.287             -0.0963          -1.53   
 2           0.0593           -0.978             -1.11            -0.278  
 3           0.370             0.348              0.647           -0.00464
 4           0.00471           0.851              0.755           -0.806  
 5           0.340             1.94               1.19            -0.276  
 6          -3.61             -0.235             -0.588           -5.29   
 7           1.44             -0.827             -1.13             1.52   
 8           1.02             -0.0410             0.689            1.12   
 9          -2.43             -2.10              -1.49            -3.94   
10          -1.26             -2.41              -2.78            -0.442  
# ℹ 90 more rows
# ℹ 2 more variables: outcome_followup <dbl>, covariate_followup <dbl>
…
